[
  {
    "ID": 1,
    "titre": "Escapade à Valparaiso",
    "description": "Superatis Tauri montis verticibus qui ad solis",
    "imageUrl": "https://picsum.photos/400?image=1072",
    "theme": "Exotisme",
    "dateDebut": "10/25/2019",
    "dateFin": "10/29/2019",
    "prix": 986,
    "promotion": false
  },
  {
    "ID": 2,
    "titre": "Bankgok sous les étoiles",
    "description": "Isdem diebus Apollinaris Domitiani gener, paulo",
    "imageUrl": "https://picsum.photos/400?image=1081",
    "theme": "Exotisme",
    "dateDebut": "11/24/2019",
    "dateFin": "11/30/2019",
    "prix": 453,
    "promotion": true
  },
  {
    "ID": 3,
    "titre": "Si tu vas à Rio",
    "description": "His cognitis Gallus ut serpens adpetitus telo vel",
    "imageUrl": "https://picsum.photos/400?image=1074",
    "theme": "Farniente",
    "dateDebut": "08/12/2019",
    "dateFin": "08/22/2019",
    "prix": 390,
    "promotion": false
  },
  {
    "ID": 4,
    "titre": "Tokyo Hotel",
    "description": "Intellectum est enim mihi quidem in multis, et",
    "imageUrl": "https://picsum.photos/400?image=1070",
    "theme": "Culture",
    "dateDebut": "09/07/2019",
    "dateFin": "09/21/2019",
    "prix": 4333,
    "promotion": false
  },
  {
    "ID": 5,
    "titre": "Cahors by night",
    "description": "Metuentes igitur idem latrones Lycaoniam magna",
    "imageUrl": "https://picsum.photos/400?image=1067",
    "theme": "Authentique",
    "dateDebut": "06/07/2019",
    "dateFin": "06/13/2019",
    "prix": 832,
    "promotion": false
  },
  {
    "ID": 6,
    "titre": "Malaise en Malaisie",
    "description": "Saepissime igitur mihi de amicitia cogitanti",
    "imageUrl": "https://picsum.photos/400?image=1065",
    "theme": "Aventure",
    "dateDebut": "08/11/2019",
    "dateFin": "08/11/2019",
    "prix": 2342,
    "promotion": false
  },
  {
    "ID": 7,
    "titre": "Fièvre à Bali",
    "description": "Alios autem dicere aiunt multo etiam inhumanius",
    "imageUrl": "https://picsum.photos/400?image=1061",
    "theme": "Aventure",
    "dateDebut": "10/07/2019",
    "dateFin": "10/28/2019",
    "prix": 847,
    "promotion": false
  },
  {
    "ID": 8,
    "titre": "New-York la nuit",
    "description": "Quod si rectum statuerimus vel concedere amicis,",
    "imageUrl": "https://picsum.photos/400?image=1048",
    "theme": "Culture",
    "dateDebut": "07/27/2019",
    "dateFin": "07/30/2019",
    "prix": 1009,
    "promotion": true
  },
  {
    "ID": 9,
    "titre": "So far away from LA",
    "description": "Quam quidem partem accusationis admiratus sum et",
    "imageUrl": "https://picsum.photos/400?image=1050",
    "theme": "Farniente",
    "dateDebut": "03/18/2019",
    "dateFin": "05/25/2019",
    "prix": 3355,
    "promotion": false
  },
  {
    "ID": 10,
    "titre": "Paris en août",
    "description": "Thalassius vero ea tempestate praefectus praetorio",
    "imageUrl": "https://picsum.photos/400?image=1047",
    "theme": "Exotisme",
    "dateDebut": "08/05/2019",
    "dateFin": "08/12/2019",
    "prix": 324,
    "promotion": false
  },
  {
    "ID": 11,
    "titre": "Rome au printemps",
    "description": "Et quia Montius inter dilancinantium manus",
    "imageUrl": "https://picsum.photos/400?image=1013",
    "theme": "Culture",
    "dateDebut": "05/01/2019",
    "dateFin": "05/14/2019",
    "prix": 590,
    "promotion": true
  },
  {
    "ID": 12,
    "titre": "J'irai pas à Vesoul",
    "description": "Nunc vero inanes flatus quorundam vile esse",
    "imageUrl": "https://picsum.photos/400?image=1040",
    "theme": "Exotisme",
    "dateDebut": "06/01/2019",
    "dateFin": "06/24/2019",
    "prix": 22,
    "promotion": false
  },
  {
    "ID": 13,
    "titre": "Dans le port d'Amsterdam",
    "description": "Inter quos Paulus eminebat notarius ortus in",
    "imageUrl": "https://picsum.photos/400?image=1005",
    "theme": "Authentique",
    "dateDebut": "12/22/2019",
    "dateFin": "12/27/2019",
    "prix": 239,
    "promotion": false
  },
  {
    "ID": 14,
    "titre": "Aventures en Colombie",
    "description": "Dein Syria per speciosam interpatet diffusa",
    "imageUrl": "https://picsum.photos/400?image=1031",
    "theme": "Aventure",
    "dateDebut": "08/21/2019",
    "dateFin": "09/22/2019",
    "prix": 5902,
    "promotion": true
  },
  {
    "ID": 15,
    "titre": "Rodez en hiver",
    "description": "Tantum autem cuique tribuendum, primum quantum",
    "imageUrl": "https://picsum.photos/400?image=1036",
    "theme": "Aventure",
    "dateDebut": "01/22/2019",
    "dateFin": "02/29/2019",
    "prix": 890,
    "promotion": true
  },
  {
    "ID": 16,
    "titre": "Bruxelles en novembre",
    "description": "Et olim licet otiosae sint tribus pacataeque",
    "imageUrl": "https://picsum.photos/400?image=1033",
    "theme": "Farniente",
    "dateDebut": "11/26/2019",
    "dateFin": "11/30/2019",
    "prix": 234,
    "promotion": false
  },
  {
    "ID": 17,
    "titre": "Frissons au Népal",
    "description": "Huic Arabia est conserta, ex alio latere Nabataeis",
    "imageUrl": "https://picsum.photos/400?image=961",
    "theme": "Aventure",
    "dateDebut": "12/01/2019",
    "dateFin": "12/21/2019",
    "prix": 9232,
    "promotion": false
  },
  {
    "ID": 18,
    "titre": "Meurtres à Venise",
    "description": "Sed saepe enim redeo ad Scipionem, cuius omnis",
    "imageUrl": "https://picsum.photos/400?image=979",
    "theme": "Aventure",
    "dateDebut": "10/26/2019",
    "dateFin": "10/27/2019",
    "prix": 1643,
    "promotion": false
  },
  {
    "ID": 19,
    "titre": "Sur la route de Memphis",
    "description": "Eminuit autem inter humilia supergressa iam",
    "imageUrl": "https://picsum.photos/400?image=998",
    "theme": "Culture",
    "dateDebut": "10/15/2019",
    "dateFin": "10/24/2019",
    "prix": 623,
    "promotion": false
  },
  {
    "ID": 20,
    "titre": "Le Caire nid d'espions",
    "description": "Haec subinde Constantius audiens et quaedam",
    "imageUrl": "https://picsum.photos/400?image=947",
    "theme": "Exotisme",
    "dateDebut": "10/06/2019",
    "dateFin": "10/10/2019",
    "prix": 2344,
    "promotion": true
  }
]